simulation/qsim/Maquina_de_vendas.msim.vcd
$comment
	File created using the following command:
		vcd file Maquina_de_vendas.msim.vcd -direction
$end
$date
	Tue Jun 15 23:19:13 2021
$end
$version
	ModelSim Version 2020.1
$end
$timescale
	1ps
$end

$scope module acumulador_vlg_vec_tst $end
$var reg 1 ! clk $end
$var reg 1 " tempoLimite $end
$var reg 2 # valorMoeda [1:0] $end
$var wire 1 $ comparar $end
$var wire 1 % valorAcumulado [3] $end
$var wire 1 & valorAcumulado [2] $end
$var wire 1 ' valorAcumulado [1] $end
$var wire 1 ( valorAcumulado [0] $end

$scope module i1 $end
$var wire 1 ) gnd $end
$var wire 1 * vcc $end
$var wire 1 + unknown $end
$var tri1 1 , devclrn $end
$var tri1 1 - devpor $end
$var tri1 1 . devoe $end
$var wire 1 / tempoLimite~combout $end
$var wire 1 0 clk~combout $end
$var wire 1 1 Selector13~5_combout $end
$var wire 1 2 proxEstado~6_combout $end
$var wire 1 3 proxEstado~7_combout $end
$var wire 1 4 Selector0~1_combout $end
$var wire 1 5 Selector0~0_combout $end
$var wire 1 6 Selector3~0_combout $end
$var wire 1 7 estadoAtual.E0_25~regout $end
$var wire 1 8 Selector1~0_combout $end
$var wire 1 9 Selector2~0 $end
$var wire 1 : estadoAtual.E0_50~regout $end
$var wire 1 ; Selector3~1_combout $end
$var wire 1 < estadoAtual.E0_75~regout $end
$var wire 1 = Selector13~1_combout $end
$var wire 1 > Selector0~2_combout $end
$var wire 1 ? estadoAtual.E0_00~regout $end
$var wire 1 @ Selector4~1_combout $end
$var wire 1 A Selector4~0_combout $end
$var wire 1 B estadoAtual.E1_00~regout $end
$var wire 1 C Selector5~0_combout $end
$var wire 1 D Selector5~1_combout $end
$var wire 1 E estadoAtual.E1_25~regout $end
$var wire 1 F Selector6~0_combout $end
$var wire 1 G Selector6~1_combout $end
$var wire 1 H estadoAtual.E1_50~regout $end
$var wire 1 I Selector7~0_combout $end
$var wire 1 J Selector7~1_combout $end
$var wire 1 K estadoAtual.E1_75~regout $end
$var wire 1 L Selector13~0_combout $end
$var wire 1 M Selector13~2_combout $end
$var wire 1 N Selector13~3_combout $end
$var wire 1 O Selector13~4_combout $end
$var wire 1 P Selector12~1_combout $end
$var wire 1 Q Selector5~2 $end
$var wire 1 R Selector7~2 $end
$var wire 1 S Selector3~2 $end
$var wire 1 T valorAcumulado~0_combout $end
$var wire 1 U Selector12~0_combout $end
$var wire 1 V Selector12~2_combout $end
$var wire 1 W Selector11~0_combout $end
$var wire 1 X Selector6~2 $end
$var wire 1 Y Selector2~1 $end
$var wire 1 Z valorAcumulado~1_combout $end
$var wire 1 [ Selector11~1_combout $end
$var wire 1 \ Selector11~2_combout $end
$var wire 1 ] Selector10~0_combout $end
$var wire 1 ^ Selector4~2 $end
$var wire 1 _ valorAcumulado~2_combout $end
$var wire 1 ` Selector10~1_combout $end
$var wire 1 a Selector9~0_combout $end
$var wire 1 b Selector8~0_combout $end
$var wire 1 c estadoAtual.E2_00~regout $end
$var wire 1 d Selector8~1 $end
$var wire 1 e Selector9~1_combout $end
$var wire 1 f valorMoeda~combout [1] $end
$var wire 1 g valorMoeda~combout [0] $end
$upscope $end
$upscope $end
$enddefinitions $end
#0
$dumpvars
0!
0"
b0 #
0$
0(
0'
0&
0%
0)
1*
x+
1,
1-
1.
0/
00
11
02
03
14
15
06
07
08
09
0:
0;
0<
0=
0>
0?
0@
0A
0B
0C
0D
0E
0F
0G
0H
0I
0J
0K
1L
1M
1N
0O
1P
0Q
0R
0S
1T
0U
0V
0W
0X
0Y
1Z
1[
0\
0]
0^
1_
0`
1a
0b
0c
0d
0e
0g
0f
$end
#5000
1!
10
#10000
0!
00
#15000
1!
10
#20000
b1 #
0!
1g
00
0a
18
05
12
0T
1V
1(
#25000
1!
10
1?
17
0P
08
19
1U
1T
1Y
0V
0Z
1\
0(
1'
#30000
0!
00
#35000
1!
10
1:
07
1W
1P
1;
0[
0U
09
1S
0Y
0T
1V
1(
#40000
b11 #
b10 #
0!
0g
1f
00
1Y
16
02
13
01
0;
1@
0Y
0S
1^
1Z
1T
0_
0\
0V
1`
0'
0(
1&
#45000
1!
10
1B
0:
1]
1[
0M
1G
0W
0@
1=
0N
1X
0^
1O
0O
0Z
1$
1\
0$
1'
#50000
0!
00
#55000
1!
10
1H
0B
1b
1W
04
0[
0G
1>
1d
0X
1e
1_
1Z
0`
0\
1%
0&
0'
#60000
b11 #
0!
1g
00
0b
06
14
0d
0e
0%
#65000
1!
10
0H
0?
0]
0W
1M
1[
1@
0=
1N
1^
0>
0_
1`
1&
#70000
0!
00
#75000
1!
10
1B
1?
1b
1]
0M
0@
1=
1d
0N
0^
1O
1e
0O
1_
1$
0`
1%
0$
0&
#80000
b1 #
b0 #
0!
0g
0f
00
0b
1a
1G
03
11
0d
1X
0G
1A
0e
0_
0Z
0X
1^
1`
1\
1Z
0%
0\
1&
1'
0'
#85000
1!
10
#90000
0!
00
#95000
1!
10
#100000
1"
b1 #
0!
1/
1g
00
1O
15
01
0a
0A
0^
1$
1_
#105000
1!
10
0B
0?
0]
1M
1>
0=
0`
1N
0>
0&
#110000
0!
00
#115000
1!
10
#120000
b11 #
b10 #
0!
0g
1f
00
#125000
1!
10
#130000
0!
00
#135000
1!
10
#140000
b11 #
0!
1g
00
#145000
1!
10
#150000
0!
00
#155000
1!
10
#160000
b1 #
b0 #
0!
0g
0f
00
1a
#165000
1!
10
#170000
0!
00
#175000
1!
10
#180000
b1 #
0!
1g
00
0a
#185000
1!
10
#190000
0!
00
#195000
1!
10
#200000
0"
b11 #
b10 #
0!
0/
0g
1f
00
0O
16
05
13
19
0$
1Y
0Z
1\
1'
#205000
1!
10
1?
1:
0[
1@
09
1W
1^
0Y
0_
1Z
1`
0\
1&
0'
#210000
0!
00
#215000
1!
10
1B
0:
1]
1[
0M
1G
0W
0@
1=
0N
1X
0^
1O
0O
0Z
1$
1\
0$
1'
#220000
b11 #
0!
1g
00
1b
0G
06
1d
0X
1e
1_
1Z
0`
0\
1%
0&
0'
#225000
1!
10
1c
0B
0e
0b
0]
0[
0P
1M
1>
0d
1N
0%
1O
1$
#230000
0!
00
#235000
1!
10
0c
0?
1[
1P
1@
0=
1^
0O
0>
0_
0$
1`
1&
#240000
b1 #
b0 #
0!
0g
0f
00
1a
0@
15
03
11
0^
1_
0`
0&
#245000
1!
10
#250000
0!
00
#255000
1!
10
#260000
b1 #
0!
1g
00
0a
18
05
12
0T
1V
1(
#265000
1!
10
1?
17
0P
08
19
1U
1T
1Y
0V
0Z
1\
0(
1'
#270000
0!
00
#275000
1!
10
1:
07
1W
1P
1;
0[
0U
09
1S
0Y
0T
1V
1(
#280000
b11 #
b10 #
0!
0g
1f
00
1Y
16
02
13
01
0;
1@
0Y
0S
1^
1Z
1T
0_
0\
0V
1`
0'
0(
1&
#285000
1!
10
1B
0:
1]
1[
0M
1G
0W
0@
1=
0N
1X
0^
1O
0O
0Z
1$
1\
0$
1'
#290000
0!
00
#295000
1!
10
1H
0B
1b
1W
04
0[
0G
1>
1d
0X
1e
1_
1Z
0`
0\
1%
0&
0'
#300000
1"
b11 #
0!
1/
1g
00
0e
1`
1\
1O
06
15
03
0b
14
0d
0%
1&
1'
1$
#305000
1!
10
0H
0?
0]
0W
1M
1[
0=
0`
0\
1N
0>
0&
0'
#310000
0!
00
#315000
1!
10
#320000
b1 #
b0 #
0!
0g
0f
00
1a
#325000
1!
10
#330000
0!
00
#335000
1!
10
#340000
b1 #
0!
1g
00
0a
#345000
1!
10
#350000
0!
00
#355000
1!
10
#360000
b11 #
b10 #
0!
0g
1f
00
#365000
1!
10
#370000
0!
00
#375000
1!
10
#380000
b11 #
0!
1g
00
#385000
1!
10
#390000
0!
00
#395000
1!
10
#400000
0"
b1 #
b0 #
0!
0/
0g
0f
00
0O
11
1a
0$
#405000
1!
10
#410000
0!
00
#415000
1!
10
#420000
b1 #
0!
1g
00
0a
18
05
12
0T
1V
1(
#425000
1!
10
1?
17
0P
08
19
1U
1T
1Y
0V
0Z
1\
0(
1'
#430000
0!
00
#435000
1!
10
1:
07
1W
1P
1;
0[
0U
09
1S
0Y
0T
1V
1(
#440000
b11 #
b10 #
0!
0g
1f
00
1Y
16
02
13
01
0;
1@
0Y
0S
1^
1Z
1T
0_
0\
0V
1`
0'
0(
1&
#445000
1!
10
1B
0:
1]
1[
0M
1G
0W
0@
1=
0N
1X
0^
1O
0O
0Z
1$
1\
0$
1'
#450000
0!
00
#455000
1!
10
1H
0B
1b
1W
04
0[
0G
1>
1d
0X
1e
1_
1Z
0`
0\
1%
0&
0'
#460000
b11 #
0!
1g
00
0b
06
14
0d
0e
0%
#465000
1!
10
0H
0?
0]
0W
1M
1[
1@
0=
1N
1^
0>
0_
1`
1&
#470000
0!
00
#475000
1!
10
1B
1?
1b
1]
0M
0@
1=
1d
0N
0^
1O
1e
0O
1_
1$
0`
1%
0$
0&
#480000
b1 #
b0 #
0!
0g
0f
00
0b
1a
1G
03
11
0d
1X
0G
1A
0e
0_
0Z
0X
1^
1`
1\
1Z
0%
0\
1&
1'
0'
#485000
1!
10
#490000
0!
00
#495000
1!
10
#500000
1"
b1 #
0!
1/
1g
00
1O
15
01
0a
0A
0^
1$
1_
#505000
1!
10
0B
0?
0]
1M
1>
0=
0`
1N
0>
0&
#510000
0!
00
#515000
1!
10
#520000
b11 #
b10 #
0!
0g
1f
00
#525000
1!
10
#530000
0!
00
#535000
1!
10
#540000
b11 #
0!
1g
00
#545000
1!
10
#550000
0!
00
#555000
1!
10
#560000
b1 #
b0 #
0!
0g
0f
00
1a
#565000
1!
10
#570000
0!
00
#575000
1!
10
#580000
b1 #
0!
1g
00
0a
#585000
1!
10
#590000
0!
00
#595000
1!
10
#600000
0"
b11 #
b10 #
0!
0/
0g
1f
00
0O
16
05
13
19
0$
1Y
0Z
1\
1'
#605000
1!
10
1?
1:
0[
1@
09
1W
1^
0Y
0_
1Z
1`
0\
1&
0'
#610000
0!
00
#615000
1!
10
1B
0:
1]
1[
0M
1G
0W
0@
1=
0N
1X
0^
1O
0O
0Z
1$
1\
0$
1'
#620000
b11 #
0!
1g
00
1b
0G
06
1d
0X
1e
1_
1Z
0`
0\
1%
0&
0'
#625000
1!
10
1c
0B
0e
0b
0]
0[
0P
1M
1>
0d
1N
0%
1O
1$
#630000
0!
00
#635000
1!
10
0c
0?
1[
1P
1@
0=
1^
0O
0>
0_
0$
1`
1&
#640000
b1 #
b0 #
0!
0g
0f
00
1a
0@
15
03
11
0^
1_
0`
0&
#645000
1!
10
#650000
0!
00
#655000
1!
10
#660000
b1 #
0!
1g
00
0a
18
05
12
0T
1V
1(
#665000
1!
10
1?
17
0P
08
19
1U
1T
1Y
0V
0Z
1\
0(
1'
#670000
0!
00
#675000
1!
10
1:
07
1W
1P
1;
0[
0U
09
1S
0Y
0T
1V
1(
#680000
b11 #
b10 #
0!
0g
1f
00
1Y
16
02
13
01
0;
1@
0Y
0S
1^
1Z
1T
0_
0\
0V
1`
0'
0(
1&
#685000
1!
10
1B
0:
1]
1[
0M
1G
0W
0@
1=
0N
1X
0^
1O
0O
0Z
1$
1\
0$
1'
#690000
0!
00
#695000
1!
10
1H
0B
1b
1W
04
0[
0G
1>
1d
0X
1e
1_
1Z
0`
0\
1%
0&
0'
#700000
1"
b11 #
0!
1/
1g
00
0e
1`
1\
1O
06
15
03
0b
14
0d
0%
1&
1'
1$
#705000
1!
10
0H
0?
0]
0W
1M
1[
0=
0`
0\
1N
0>
0&
0'
#710000
0!
00
#715000
1!
10
#720000
b1 #
b0 #
0!
0g
0f
00
1a
#725000
1!
10
#730000
0!
00
#735000
1!
10
#740000
b1 #
0!
1g
00
0a
#745000
1!
10
#750000
0!
00
#755000
1!
10
#760000
b11 #
b10 #
0!
0g
1f
00
#765000
1!
10
#770000
0!
00
#775000
1!
10
#780000
b11 #
0!
1g
00
#785000
1!
10
#790000
0!
00
#795000
1!
10
#800000
0"
b1 #
b0 #
0!
0/
0g
0f
00
0O
11
1a
0$
#805000
1!
10
#810000
0!
00
#815000
1!
10
#820000
b1 #
0!
1g
00
0a
18
05
12
0T
1V
1(
#825000
1!
10
1?
17
0P
08
19
1U
1T
1Y
0V
0Z
1\
0(
1'
#830000
0!
00
#835000
1!
10
1:
07
1W
1P
1;
0[
0U
09
1S
0Y
0T
1V
1(
#840000
b11 #
b10 #
0!
0g
1f
00
1Y
16
02
13
01
0;
1@
0Y
0S
1^
1Z
1T
0_
0\
0V
1`
0'
0(
1&
#845000
1!
10
1B
0:
1]
1[
0M
1G
0W
0@
1=
0N
1X
0^
1O
0O
0Z
1$
1\
0$
1'
#850000
0!
00
#855000
1!
10
1H
0B
1b
1W
04
0[
0G
1>
1d
0X
1e
1_
1Z
0`
0\
1%
0&
0'
#860000
b11 #
0!
1g
00
0b
06
14
0d
0e
0%
#865000
1!
10
0H
0?
0]
0W
1M
1[
1@
0=
1N
1^
0>
0_
1`
1&
#870000
0!
00
#875000
1!
10
1B
1?
1b
1]
0M
0@
1=
1d
0N
0^
1O
1e
0O
1_
1$
0`
1%
0$
0&
#880000
b1 #
b0 #
0!
0g
0f
00
0b
1a
1G
03
11
0d
1X
0G
1A
0e
0_
0Z
0X
1^
1`
1\
1Z
0%
0\
1&
1'
0'
#885000
1!
10
#890000
0!
00
#895000
1!
10
#900000
1"
b1 #
0!
1/
1g
00
1O
15
01
0a
0A
0^
1$
1_
#905000
1!
10
0B
0?
0]
1M
1>
0=
0`
1N
0>
0&
#910000
0!
00
#915000
1!
10
#920000
b11 #
b10 #
0!
0g
1f
00
#925000
1!
10
#930000
0!
00
#935000
1!
10
#940000
b11 #
0!
1g
00
#945000
1!
10
#950000
0!
00
#955000
1!
10
#960000
b1 #
b0 #
0!
0g
0f
00
1a
#965000
1!
10
#970000
0!
00
#975000
1!
10
#980000
b1 #
0!
1g
00
0a
#985000
1!
10
#990000
0!
00
#995000
1!
10
