simulation/qsim/Maquina_de_vendas.msim.vcd
$comment
	File created using the following command:
		vcd file Maquina_de_vendas.msim.vcd -direction
$end
$date
	Wed Jun 16 18:58:28 2021
$end
$version
	ModelSim Version 2020.1
$end
$timescale
	1ps
$end

$scope module reg_fim_vlg_vec_tst $end
$var reg 1 ! DM $end
$var reg 1 " LP $end
$var reg 1 # clk $end
$var wire 1 $ FIM $end

$scope module i1 $end
$var wire 1 % gnd $end
$var wire 1 & vcc $end
$var wire 1 ' unknown $end
$var tri1 1 ( devclrn $end
$var tri1 1 ) devpor $end
$var tri1 1 * devoe $end
$var wire 1 + clk~combout $end
$var wire 1 , DM~combout $end
$var wire 1 - LP~combout $end
$var wire 1 . D3~regout $end
$var wire 1 / D2~regout $end
$var wire 1 0 D1~regout $end
$var wire 1 1 D0~regout $end
$upscope $end
$upscope $end
$enddefinitions $end
#0
$dumpvars
0!
0"
0#
0$
0%
1&
x'
1(
1)
1*
0+
0,
0-
0.
0/
00
01
$end
#50000
1#
1+
#100000
1"
0#
1-
0+
#150000
1#
1+
1.
#200000
0"
0#
0-
0+
#250000
1#
1+
1/
0.
#300000
0#
0+
#350000
1#
1+
10
0/
#400000
0#
0+
#450000
1#
1+
11
00
1$
#500000
0#
0+
#550000
1#
1+
01
0$
#600000
1!
0#
1,
0+
#650000
0!
1#
0,
1+
1.
#700000
0#
0+
#750000
1#
1+
1/
0.
#800000
0#
0+
#850000
1#
1+
10
0/
#900000
0#
0+
#950000
1#
1+
11
00
1$
